{
	"name": "Curse Profile",
	"version": "1.6.2",
	"author": [
		"Noah Manneschmidt",
		"Hydra Wiki Platform Team"
	],
	"license-name": "GPL-2.0-or-later",
	"descriptionmsg": "curseprofile_description",
	"type": "specialpage",
	"requires": {
		"MediaWiki": ">= 1.29.0",
		"extensions": {
			"Cheevos": ">= 1.0.0",
			"DynamicSettings": ">= 3.0.0",
			"Echo": "*",
			"HydraAuth": "*",
			"HydraCore": ">= 3.0.0",
			"SyncService": ">= 2.0.0"
		}
	},
	"AvailableRights": [
		"profile-moderate",
		"profile-purgecomments",
		"profile-stats"
	],
	"GroupPermissions": {
		"sysop": {
			"profile-moderate": true,
			"profile-purgecomments": true
		}
	},
	"SpecialPages": {
		"ManageFriends": "CurseProfile\\SpecialManageFriends",
		"Friends": "CurseProfile\\SpecialFriends",
		"AddComment": "CurseProfile\\SpecialAddComment",
		"CommentBoard": "CurseProfile\\SpecialCommentBoard",
		"CommentPermalink": "CurseProfile\\SpecialCommentPermalink",
		"CommentModeration": "CurseProfile\\SpecialCommentModeration",
		"WikiImageRedirect": "CurseProfile\\SpecialWikiImageRedirect",
		"ProfileStats": "CurseProfile\\SpecialProfileStats"
	},
	"LogTypes": {
		"curseprofile": "curseprofile"
	},
	"LogNames": {
		"curseprofile": "curseprofile_log_name"
	},
	"LogHeaders": {
		"curseprofile": "curseprofile_log_description"
	},
	"LogActionsHandlers": {
		"curseprofile/comment-created": "\\CurseProfile\\CommentLogFormatter",
		"curseprofile/comment-replied": "\\CurseProfile\\CommentLogFormatter",
		"curseprofile/comment-edited": "\\CurseProfile\\CommentLogFormatter",
		"curseprofile/comment-deleted": "\\CurseProfile\\CommentLogFormatter",
		"curseprofile/profile-edited": "\\CurseProfile\\ProfileLogFormatter"
	},
	"MessagesDirs": {
		"CurseProfile": [
			"i18n"
		]
	},
	"ExtensionMessagesFiles": {
		"CurseProfileAlias": "/CurseProfile.alias.php",
		"CurseProfileMagic": "/CurseProfile.i18n.magic.php"
	},
	"AutoloadClasses": {
		"CurseProfile\\Hooks": "classes/Hooks.php",
		"CurseProfile\\CP": "classes/CP.php",
		"CurseProfile\\ProfileApi": "classes/ProfileApi.php",
		"CurseProfile\\NoProfilePage": "classes/NoProfilePage.php",
		"CurseProfile\\ProfilePage": "classes/ProfilePage.php",
		"CurseProfile\\ProfileData": "classes/ProfileData.php",
		"CurseProfile\\RecentActivity": "classes/RecentActivity.php",
		"CurseProfile\\Friendship": "classes/Friendship.php",
		"CurseProfile\\FriendDisplay": "classes/FriendDisplay.php",
		"CurseProfile\\FriendApi": "classes/FriendApi.php",
		"CurseProfile\\CommentApi": "classes/CommentApi.php",
		"CurseProfile\\CommentBoard": "classes/CommentBoard.php",
		"CurseProfile\\CommentReport": "classes/CommentReport.php",
		"CurseProfile\\CommentDisplay": "classes/CommentDisplay.php",
		"CurseProfile\\ResolveComment": "classes/jobs/ResolveComment.php",
		"CurseProfile\\MWEcho\\CommentPresentationModel": "classes/echo/CommentPresentationModel.php",
		"CurseProfile\\MWEcho\\EchoUserLocator": "classes/echo/EchoUserLocator.php",
		"CurseProfile\\MWEcho\\FriendshipPresentationModel": "classes/echo/FriendshipPresentationModel.php",
		"CurseProfile\\MWEcho\\NotificationFormatter": "classes/echo/NotificationFormatter.php",
		"CurseProfile\\ResourceLoaderModule": "classes/ResourceLoaderModule.php",
		"CurseProfile\\CommentLogFormatter": "classes/CommentLogFormatter.php",
		"CurseProfile\\ProfileLogFormatter": "classes/ProfileLogFormatter.php",
		"CurseProfile\\StatsRecache": "classes/jobs/StatsRecache.php",
		"CurseProfile\\SpecialProfileStats": "specials/SpecialProfileStats.php",
		"TemplateCommentBoard": "templates/TemplateCommentBoard.php",
		"TemplateCommentModeration": "templates/TemplateCommentModeration.php",
		"TemplateManageFriends": "templates/TemplateManageFriends.php",
		"TemplateProfileStats": "templates/TemplateProfileStats.php",
		"CurseProfile\\SpecialManageFriends": "specials/friends/SpecialManageFriends.php",
		"CurseProfile\\SpecialFriends": "specials/friends/SpecialFriends.php",
		"CurseProfile\\SpecialAddComment": "specials/comments/SpecialAddComment.php",
		"CurseProfile\\SpecialCommentBoard": "specials/comments/SpecialCommentBoard.php",
		"CurseProfile\\SpecialCommentPermalink": "specials/comments/SpecialCommentPermalink.php",
		"CurseProfile\\SpecialCommentModeration": "specials/comments/SpecialCommentModeration.php",
		"CurseProfile\\SpecialWikiImageRedirect": "specials/SpecialWikiImageRedirect.php"
	},
	"ResourceModules": {
		"ext.curseprofile.noprofile.scripts": {
			"scripts": [
				"js/noprofile.js"
			]
		},
		"ext.curseprofile.profilepage.styles": {
			"styles": [
				"css/curseprofile.css"
			],
			"dependencies": [
				"ext.curseprofile.customskin.styles",
				"ext.curseprofile.comments.styles"
			],
			"position": "top",
			"targets": [
				"desktop",
				"mobile"
			]
		},
		"ext.curseprofile.profilepage.scripts": {
			"styles": [
				"css/curseprofile.css"
			],
			"scripts": [
				"js/curseprofile.js"
			],
			"dependencies": [
				"ext.curseprofile.comments.scripts",
				"jquery.autosize",
				"mediawiki.user",
				"mediawiki.api"
			],
			"position": "top",
			"messages": [
				"battlenetlinkplaceholder",
				"block",
				"cancel",
				"contributions-title",
				"email-auth-required",
				"discordlinkplaceholder",
				"facebooklinkplaceholder",
				"invalid_profile_field",
				"log",
				"no-perm-profile-moderate",
				"profile-blocked",
				"profile-link-battlenet",
				"profile-link-discord",
				"profile-link-facebook",
				"profile-link-google",
				"profile-link-psn",
				"profile-link-reddit",
				"profile-link-steam",
				"profile-link-twitch",
				"profile-link-twitter",
				"profile-link-vk",
				"profile-link-xbl",
				"psnlinkplaceholder",
				"purgeaboutme-prompt",
				"redditlinkplaceholder",
				"save",
				"steamlinkplaceholder",
				"twitchlinkplaceholder",
				"twitterlinkplaceholder",
				"userrights",
				"vklinkplaceholder",
				"xbllinkplaceholder"
			],
			"targets": [
				"desktop",
				"mobile"
			]
		},
		"ext.curseprofile.preferences.styles": {
			"dependencies": [
				"ext.hydraCore.font-awesome.styles"
			],
			"position": "top",
			"targets": [
				"desktop",
				"mobile"
			]
		},
		"ext.curseprofile.preferences.scripts": {
			"scripts": [
				"js/preferences.js"
			],
			"dependencies": [
				"mediawiki.user",
				"mediawiki.api",
				"jquery.ui.autocomplete"
			],
			"position": "top",
			"targets": [
				"desktop",
				"mobile"
			]
		},
		"ext.curseprofile.comments.styles": {
			"styles": [
				"css/comments.css"
			],
			"dependencies": [
				"ext.hydraCore.font-awesome.styles"
			],
			"position": "top",
			"targets": [
				"desktop",
				"mobile"
			]
		},
		"ext.curseprofile.comments.scripts": {
			"scripts": [
				"js/comments.js"
			],
			"dependencies": [
				"jquery.timeago",
				"jquery.autosize",
				"mediawiki.user",
				"mediawiki.api"
			],
			"position": "top",
			"messages": [
				"save",
				"cancel",
				"remove-prompt",
				"purge-prompt",
				"report-prompt",
				"report-thanks"
			],
			"targets": [
				"desktop",
				"mobile"
			]
		},
		"ext.curseprofile.commentmoderation.styles": {
			"styles": [
				"css/commentmoderation.less"
			],
			"dependencies": [
				"ext.curseprofile.comments.styles"
			],
			"position": "top"
		},
		"ext.curseprofile.commentmoderation.scripts": {
			"scripts": [
				"js/commentmoderation.js"
			],
			"dependencies": [
				"ext.curseprofile.comments.scripts"
			],
			"position": "top",
			"messages": [
				"report-confirmdismiss",
				"report-confirmdelete"
			]
		},
		"a.ext.curseprofile.profilepage.mobile.styles": {
			"styles": [
				"css/curseprofile.mobile.css",
				"css/comments.mobile.css"
			],
			"position": "top",
			"targets": [
				"mobile"
			],
			"group": "site"
		},
		"a.ext.curseprofile.profilepage.mobile.scripts": {
			"scripts": [
				"js/comments.js"
			],
			"dependencies": [
				"jquery.timeago",
				"jquery.autosize"
			],
			"position": "top",
			"targets": [
				"mobile"
			],
			"group": "site"
		},
		"jquery.timeago": {
			"targets": [
				"desktop",
				"mobile"
			],
			"scripts": [
				"js/jquery.timeago.js"
			]
		},
		"jquery.autosize": {
			"targets": [
				"desktop",
				"mobile"
			],
			"scripts": [
				"js/jquery.autosize.min.js"
			]
		},
		"ext.curseprofile.customskin.styles": {
			"class": "CurseProfile\\ResourceLoaderModule",
			"targets": [
				"desktop",
				"mobile"
			]
		}
	},
	"ResourceFileModulePaths": {
		"localBasePath": "",
		"remoteExtPath": "CurseProfile"
	},
	"Hooks": {
		"ArticleFromTitle": "CurseProfile\\Hooks::onArticleFromTitle",
		"ArticleViewRedirect": "CurseProfile\\Hooks::onArticleViewRedirect",
		"BeforeCreateEchoEvent": "CurseProfile\\Hooks::onBeforeCreateEchoEvent",
		"BeforeInitialize": "CurseProfile\\Hooks::onBeforeInitialize",
		"CanonicalNamespaces": "CurseProfile\\Hooks::onCanonicalNamespaces",
		"EditPage::importFormData": "CurseProfile\\Hooks::onEditPageImportFormData",
		"GetPreferences": "CurseProfile\\Hooks::onGetPreferences",
		"LinkBegin": "CurseProfile\\Hooks::onLinkBegin",
		"LoadExtensionSchemaUpdates": "CurseProfile\\Hooks::onLoadExtensionSchemaUpdates",
		"NamespaceIsMovable": "CurseProfile\\Hooks::onNamespaceIsMovable",
		"ParserFirstCallInit": "CurseProfile\\Hooks::onParserFirstCall",
		"PreferencesFormPreSave": "CurseProfile\\Hooks::onPreferencesFormPreSave",
		"SkinMinervaDefaultModules": "CurseProfile\\Hooks::onSkinMinervaDefaultModules",
		"SkinSubPageSubtitle": "CurseProfile\\Hooks::onSkinSubPageSubtitle",
		"SkinTemplateNavigation": "CurseProfile\\Hooks::onSkinTemplateNavigation",
		"UnitTestsList": "CurseProfile\\Hooks::onUnitTestsList",
		"userCan": "CurseProfile\\Hooks::onUserCan",
		"UserGetDefaultOptions": "CurseProfile\\Hooks::onUserGetDefaultOptions",
		"UserSaveOptions": "CurseProfile\\Hooks::onUserSaveOptions",
		"WantedPages::getQueryInfo": "CurseProfile\\Hooks::onWantedPagesGetQueryInfo"
	},
	"APIModules": {
		"profile": "CurseProfile\\ProfileApi",
		"friend": "CurseProfile\\FriendApi",
		"comment": "CurseProfile\\CommentApi"
	},
	"callback": "CurseProfile\\Hooks::onRegistration",
	"config": {
		"CPEditsToComment": {
			"value": 1,
			"path": false,
			"descriptionmsg": "curseprofile-config-cpeditstocomment",
			"public": false
		},
		"CPCommentModGroup": {
			"value": "sysop",
			"path": false,
			"descriptionmsg": "curseprofile-config-cpcommentmodgroup",
			"public": false
		},
		"SyncServices": {
			"value": {
				"ResolveComment": "CurseProfile\\ResolveComment",
				"StatsRecache": "CurseProfile\\StatsRecache"
			},
			"path": false,
			"descriptionmsg": "curseprofile-config-syncservices",
			"public": false,
			"merge_strategy": "array_merge"
		}
	},
	"manifest_version": 2
}
